// Jest Snapshot v1, https://goo.gl/fbAQLP

exports[`Terms should render correctly 1`] = `
<styled.div>
  <styled.div>
    <styled.div>
      <h1>
        Terms of Service
      </h1>
      <h3>
        Last updated on January, 31, 2018
      </h3>
      <p>
        Welcome to Office Hawk, a website (www.officehawk.com) (the 'Site') and cloud-based platform (the 'Platform') operated byReverence Technologies sp. z o.o.(the “Company”).
        <br />
        <br />
        Office Hawk is a platform facilitating the tenant representation process for Real Estate Brokers. Office Hawk offers Brokers tools that speed up and automate various lease-related tasks. In particular: sending request for proposals to landlords and subsequently, receiving and comparing proposals submitted by landlords. The services provided by the Website and Platform are called the 'Service.'
        <br />
        <br />
        The following Terms of Service (“Terms”) apply when you use the Platform, Site, and/or Service.
        <br />
        <br />
        The term 'Platform' may be used in these Terms to refer to both the Site and Platform.
        <br />
        <br />
        Please review these Terms carefully. By accessing or using the Platform or Service, or by clicking 'I agree' when you create an account, you show you agree to these Terms. If you don’t agree to these Terms, please do not use the Platform or Service.
      </p>
    </styled.div>
    <styled.div>
      <styled.h3>
        About the platform and service
      </styled.h3>
      <p>
        You will be charged for access to the Service based on the plan you pick.
        <br />
        <br />
        You will be required to provide the Company or its billing service provider with information regarding your credit card or other payment method. You represent and warrant to the Company that such information is true and that you are authorized to use the payment method. You will promptly update your account information with any changes (for example, a change in your billing address or credit card expiration date).
        <br />
        <br />
        You hereby authorize the Company or its billing service provider to bill you in advance (on a periodic basis, if this is applicable to the plan you pick) in accordance with the terms of your plan until you terminate your account, and you agree to pay any charges so incurred. If you dispute any charges you must notify the Company within thirty (30) days after the date that you are billed.
        <br />
        <br />
        The term of the Service will start on the date you sign up and continue for the applicable term purchased. The Company will have the right to terminate the Service prior to expiration of the applicable term by providing you notice, and if it does so will refund to you a pro-rata portion of the payment you made for the term of the Service.
      </p>
    </styled.div>
    <styled.div>
      <styled.h3>
        About the platform and service
      </styled.h3>
      <p>
        You will be charged for access to the Service based on the plan you pick.
        <br />
        <br />
        You will be required to provide the Company or its billing service provider with information regarding your credit card or other payment method. You represent and warrant to the Company that such information is true and that you are authorized to use the payment method. You will promptly update your account information with any changes (for example, a change in your billing address or credit card expiration date).
        <br />
        <br />
        You hereby authorize the Company or its billing service provider to bill you in advance (on a periodic basis, if this is applicable to the plan you pick) in accordance with the terms of your plan until you terminate your account, and you agree to pay any charges so incurred. If you dispute any charges you must notify the Company within thirty (30) days after the date that you are billed.
        <br />
        <br />
        The term of the Service will start on the date you sign up and continue for the applicable term purchased. The Company will have the right to terminate the Service prior to expiration of the applicable term by providing you notice, and if it does so will refund to you a pro-rata portion of the payment you made for the term of the Service.
      </p>
    </styled.div>
    <styled.div>
      <styled.h3>
        About the platform and service
      </styled.h3>
      <p>
        You will be charged for access to the Service based on the plan you pick.
        <br />
        <br />
        You will be required to provide the Company or its billing service provider with information regarding your credit card or other payment method. You represent and warrant to the Company that such information is true and that you are authorized to use the payment method. You will promptly update your account information with any changes (for example, a change in your billing address or credit card expiration date).
        <br />
        <br />
        You hereby authorize the Company or its billing service provider to bill you in advance (on a periodic basis, if this is applicable to the plan you pick) in accordance with the terms of your plan until you terminate your account, and you agree to pay any charges so incurred. If you dispute any charges you must notify the Company within thirty (30) days after the date that you are billed.
        <br />
        <br />
        The term of the Service will start on the date you sign up and continue for the applicable term purchased. The Company will have the right to terminate the Service prior to expiration of the applicable term by providing you notice, and if it does so will refund to you a pro-rata portion of the payment you made for the term of the Service.
      </p>
    </styled.div>
  </styled.div>
</styled.div>
`;
