// Jest Snapshot v1, https://goo.gl/fbAQLP

exports[`Result should render correctly 1`] = `
<styled.div>
  <div>
    <Image
      image="test"
    />
    <Content
      statement="test"
      volume="test"
    />
  </div>
  <div>
    <styled.div />
    <Connect(ReduxForm)
      form="test"
      id="test"
      no="test"
      statement="test"
      yes="test"
    />
  </div>
</styled.div>
`;
