<svg width="18" height="20" xmlns="http://www.w3.org/2000/svg">
    <path d="M9 0a1 1 0 0 1 1 1v1.08c2.84.48 5 2.95 5 5.92v6l3 3H0l3-3V8c0-2.97 2.16-5.44 5-5.92V1a1 1 0 0 1 1-1m2 18a2 2 0 0 1-4 0h4"
          fill="#828F97" fill-rule="evenodd"/>
</svg>